{
  "extensionName": {
    "message": "Display Mail User Agent T",
    "description": "Name of the extension."
  },

  "extensionDescription": {
    "message": "Mostra qual cliente de e-mail foi utilizado para compor a mensagem",
    "description": "Description of the add-on."
  }
}
