{
  "extensionName": {
    "message": "Display Mail User Agent T",
    "description": "Name of the extension."
  },

  "extensionDescription": {
    "message": "選択されたメールが書かれたメールプログラムを表示します",
    "description": "Description of the add-on."
  }
}
