{
  "extensionName": {
    "message": "Display Mail User Agent T",
    "description": "Name of the extension."
  },

  "extensionDescription": {
    "message": "Megjeleníti azt a levelezőprogramot, amellyel a kiválasztott levél íródott",
    "description": "Description of the add-on."
  }
}
