{
  "extensionName": {
    "message": "Display Mail User Agent T",
    "description": "Name of the extension."
  },

  "extensionDescription": {
    "message": "Mostra o programa com o qual o e-mail seleccionado foi escrito",
    "description": "Description of the add-on."
  }
}
