{
  "extensionName": {
    "message": "Display Mail User Agent T",
    "description": "Name of the extension."
  },

  "extensionDescription": {
    "message": "선택한 메일이 쓰여진 메일 풀그림을 표시",
    "description": "Description of the add-on."
  }
}
